<?xml version="1.0" encoding="UTF-8" standalone="no"?>
<!-- Created with Inkscape (http://www.inkscape.org/) -->

<!-- The creative work (this includes design, as well as programming code) by MaXine Lindner is licensed under Creative Commons Attribution-Non-Commercial-No Derivative Works 3.0 Germany License. (http://creativecommons.org/licenses/by-nc-nd/3.0/de/) -->

<svg
   xmlns:dc="http://purl.org/dc/elements/1.1/"
   xmlns:cc="http://creativecommons.org/ns#"
   xmlns:rdf="http://www.w3.org/1999/02/22-rdf-syntax-ns#"
   xmlns:svg="http://www.w3.org/2000/svg"
   xmlns="http://www.w3.org/2000/svg"
   xmlns:sodipodi="http://sodipodi.sourceforge.net/DTD/sodipodi-0.dtd"
   xmlns:inkscape="http://www.inkscape.org/namespaces/inkscape"
   width="200.81146"
   height="186.5088"
   id="svg2489"
   sodipodi:version="0.32"
   inkscape:version="0.91 r13725"
   sodipodi:docname="fscon_logo_white.svg"
   inkscape:output_extension="org.inkscape.output.svg.inkscape"
   version="1.1">
  <defs
     id="defs2491" />
  <sodipodi:namedview
     id="base"
     pagecolor="#d8d8d8"
     bordercolor="#666666"
     borderopacity="1.0"
     gridtolerance="10000"
     guidetolerance="10"
     objecttolerance="10"
     inkscape:pageopacity="0"
     inkscape:pageshadow="2"
     inkscape:zoom="0.70710678"
     inkscape:cx="141.79528"
     inkscape:cy="68.512188"
     inkscape:document-units="px"
     inkscape:current-layer="g4190"
     showgrid="false"
     inkscape:window-width="1280"
     inkscape:window-height="734"
     inkscape:window-x="0"
     inkscape:window-y="27"
     inkscape:window-maximized="1"
     fit-margin-top="0"
     fit-margin-left="0"
     fit-margin-right="0"
     fit-margin-bottom="0">
    <sodipodi:guide
       position="138.55941,-575.56361"
       orientation="0,744.09448"
       id="guide3610" />
    <sodipodi:guide
       position="882.65389,-575.56361"
       orientation="-1052.3622,0"
       id="guide3612" />
    <sodipodi:guide
       position="882.65389,476.79859"
       orientation="0,-744.09448"
       id="guide3614" />
    <sodipodi:guide
       position="138.55941,-575.56361"
       orientation="0,744.09448"
       id="guide3618" />
    <sodipodi:guide
       position="882.65389,-575.56361"
       orientation="-1052.3622,0"
       id="guide3620" />
    <sodipodi:guide
       position="882.65389,476.79859"
       orientation="0,-744.09448"
       id="guide3622" />
  </sodipodi:namedview>
  <metadata
     id="metadata2494">
    <rdf:RDF>
      <cc:Work
         rdf:about="">
        <dc:format>image/svg+xml</dc:format>
        <dc:type
           rdf:resource="http://purl.org/dc/dcmitype/StillImage" />
        <dc:title></dc:title>
      </cc:Work>
    </rdf:RDF>
  </metadata>
  <g
     inkscape:label="Layer 1"
     inkscape:groupmode="layer"
     id="layer1"
     transform="translate(138.55941,-290.28977)"
     sodipodi:insensitive="true"
     style="display:none">
    <path
       sodipodi:nodetypes="cssscssssssssss"
       id="path4343"
       d="m 16.408195,338.76126 c -20.4439203,-30.5235 -61.962949,-38.89095 -92.684629,-18.30113 -8.143317,5.45773 -14.548466,12.27255 -19.450852,20.0531 -2.251793,3.57382 -4.257231,7.62606 -5.838044,11.81382 -1.58088,4.18777 -2.75671,8.50329 -3.40046,12.58201 -0.71984,4.47926 -1.00044,8.49251 -0.91053,12.55013 0.0898,4.05765 0.53187,8.1718 1.53715,12.87649 1.75677,8.22241 5.190503,15.98688 9.762451,22.8085 2.574932,3.84199 6.566508,8.82484 12.156722,13.65743 2.795106,2.4163 6.165111,4.84487 9.881626,6.98184 3.716585,2.13694 7.766767,3.99091 11.887766,5.38688 4.252038,1.44038 8.639045,2.50119 13.579331,3.09697 4.688879,0.56547 9.337822,0.59407 13.305534,0.27762 2.487058,-0.19834 4.984855,-0.53909 7.520623,-1.02534 2.535768,-0.48626 6.10726,-4.13524 8.745921,-4.99949"
       style="display:inline;fill:none;stroke:#fcd116;stroke-width:8;stroke-linecap:butt;stroke-linejoin:miter;stroke-miterlimit:4;stroke-dasharray:none;stroke-opacity:1"
       inkscape:connector-curvature="0" />
    <path
       sodipodi:nodetypes="cssscssssssssss"
       id="path4345"
       d="m -1.4991856,305.66541 c -39.0834174,-21.26529 -88.3325054,-6.91809 -109.7283644,32.43321 -5.67135,10.4308 -8.71534,21.34119 -9.60432,32.44353 -0.40835,5.09965 -0.28355,10.57417 0.3729,15.9556 0.65645,5.38141 1.81923,10.67239 3.41998,15.41032 1.74399,5.21047 3.69763,9.67417 6.07359,13.97736 2.37602,4.30319 5.16158,8.4692 8.88322,12.95242 6.504321,7.83533 14.550641,14.23726 23.288438,18.98811 4.921196,2.67574 12.003293,5.7797 20.716314,7.82432 4.356546,1.02231 9.336699,1.73485 14.524954,1.93978 5.188256,0.20493 10.57556,-0.0812 15.781362,-0.89852 5.371583,-0.84332 10.674593,-2.16971 16.310007,-4.30587 5.3486316,-2.02747 10.3528582,-4.60851 14.4323075,-7.17711 2.5570342,-1.61 5.0456366,-3.37885 7.4932505,-5.32516 2.447613,-1.94632 5.842166,-9.08731 8.187798,-11.497"
       style="display:inline;fill:none;stroke:#c60000;stroke-width:8;stroke-linecap:butt;stroke-linejoin:miter;stroke-miterlimit:4;stroke-dasharray:none;stroke-opacity:1"
       inkscape:connector-curvature="0" />
    <path
       sodipodi:nodetypes="cssscssc"
       id="path4347"
       d="m -134.00587,364.96933 c -7.01437,51.71491 29.25225,99.7233 81.315326,106.76905 13.800278,1.86759 27.030642,0.65484 39.572827,-3.00048 5.7609775,-1.67893 11.7106161,-4.09875 17.3364844,-7.0626 5.6258683,-2.96382 10.9413716,-6.44503 15.4679796,-10.17571 4.984925,-4.08484 9.063743,-8.08803 12.790505,-12.4873 3.726692,-4.3993 6.459333,-8.70196 10.495126,-15.14003 8.823074,-14.07492 6.859324,-10.31525 12.436272,-25.52804"
       style="display:inline;fill:none;stroke:#003897;stroke-width:8;stroke-linecap:butt;stroke-linejoin:miter;stroke-miterlimit:4;stroke-dasharray:none;stroke-opacity:1"
       inkscape:connector-curvature="0" />
    <path
       id="path4369"
       d="m -24.216045,430.12933 35.394294,-7.16458 -27.561673,21.04916 -7.832621,-13.88458 z"
       style="fill:#fcd116;fill-opacity:1;fill-rule:evenodd;stroke:none"
       sodipodi:nodetypes="cccc"
       inkscape:connector-curvature="0" />
    <path
       id="path4371"
       d="M 8.576434,427.17386 38.570422,408.33359 20.240097,437.77362 8.576434,427.17386 Z"
       style="fill:#c60000;fill-opacity:1;fill-rule:evenodd;stroke:none"
       sodipodi:nodetypes="cccc"
       inkscape:connector-curvature="0" />
    <path
       id="path4373"
       d="m 43.73132,402.62423 21.027243,-25.12382 -6.618042,31.83312 -14.409201,-6.7093 z"
       style="fill:#003897;fill-opacity:1;fill-rule:evenodd;stroke:none"
       sodipodi:nodetypes="cccc"
       inkscape:connector-curvature="0" />
  </g>
  <g
     transform="translate(138.55941,-290.28977)"
     id="g4190"
     inkscape:groupmode="layer"
     inkscape:label="Layer 1 copy"
     style="display:inline">
    <path
       transform="matrix(0.66066408,0.75068168,-0.75068168,0.66066408,0,0)"
       style="opacity:1;fill:none;fill-opacity:1;stroke:#ffffff;stroke-width:8;stroke-linecap:round;stroke-miterlimit:4;stroke-dasharray:none;stroke-opacity:1"
       id="path4206"
       sodipodi:type="arc"
       sodipodi:cx="255.45204"
       sodipodi:cy="277.8837"
       sodipodi:rx="81.064247"
       sodipodi:ry="81.064247"
       sodipodi:start="6.2450848"
       sodipodi:end="4.3415827"
       sodipodi:open="true"
       d="m 336.45746,274.79586 a 81.064247,81.064247 0 0 1 -68.97129,83.25387 81.064247,81.064247 0 0 1 -90.3758,-59.33348 81.064247,81.064247 0 0 1 48.96666,-96.38731" />
    <path
       sodipodi:open="true"
       transform="matrix(0.9482533,0.31751484,-0.31751484,0.9482533,0,0)"
       d="M 177.45257,367.44474 A 95.038078,95.038078 0 0 1 92.899862,465.21168 95.038078,95.038078 0 0 1 -10.942159,388.24175"
       sodipodi:end="2.95646"
       sodipodi:start="6.248427"
       sodipodi:ry="95.038078"
       sodipodi:rx="95.038078"
       sodipodi:cy="370.74744"
       sodipodi:cx="82.471893"
       sodipodi:type="arc"
       id="path4210"
       style="opacity:1;fill:none;fill-opacity:1;stroke:#ffffff;stroke-width:8;stroke-linecap:round;stroke-miterlimit:4;stroke-dasharray:none;stroke-opacity:1" />
    <path
       sodipodi:open="true"
       d="m -19.305584,438.42944 a 66.193665,66.193665 0 0 1 -80.823446,-36.80308 66.193665,66.193665 0 0 1 28.536409,-84.09858 66.193665,66.193665 0 0 1 86.530634,19.98367"
       sodipodi:end="5.6746684"
       sodipodi:start="1.2627764"
       sodipodi:ry="66.193665"
       sodipodi:rx="66.193665"
       sodipodi:cy="375.35114"
       sodipodi:cx="-39.373672"
       sodipodi:type="arc"
       id="path4194"
       style="opacity:1;fill:none;fill-opacity:1;stroke:#ffffff;stroke-width:8;stroke-linecap:round;stroke-miterlimit:4;stroke-dasharray:none;stroke-opacity:1" />
    <path
       sodipodi:nodetypes="cccc"
       style="fill:#ffffff;fill-opacity:1;fill-rule:evenodd;stroke:#ffffff;stroke-linejoin:round;stroke-opacity:1"
       d="M 10.568834,428.2445 40.8438,409.85914 22.071162,439.01912 10.568834,428.2445 Z"
       id="path4208"
       inkscape:connector-curvature="0" />
    <path
       sodipodi:nodetypes="cccc"
       style="display:inline;fill:#ffffff;fill-opacity:1;fill-rule:evenodd;stroke:#ffffff;stroke-linejoin:round;stroke-opacity:1"
       d="M -26.963321,432.32385 8.2904504,428.89365 -21.27444,447.0219 -26.963321,432.32385 Z"
       id="path4208-5"
       inkscape:connector-curvature="0" />
    <path
       sodipodi:nodetypes="cccc"
       style="display:inline;fill:#ffffff;fill-opacity:1;fill-rule:evenodd;stroke:#ffffff;stroke-linejoin:round;stroke-opacity:1"
       d="m 42.356929,408.55885 19.395144,-29.6382 -4.372224,34.40349 -15.02292,-4.76529 z"
       id="path4208-7"
       inkscape:connector-curvature="0" />
  </g>
</svg>
