<?xml version="1.0" encoding="UTF-8" standalone="no"?>
<!-- Created with Inkscape (http://www.inkscape.org/) -->

<svg
   xmlns:dc="http://purl.org/dc/elements/1.1/"
   xmlns:cc="http://creativecommons.org/ns#"
   xmlns:rdf="http://www.w3.org/1999/02/22-rdf-syntax-ns#"
   xmlns:svg="http://www.w3.org/2000/svg"
   xmlns="http://www.w3.org/2000/svg"
   xmlns:sodipodi="http://sodipodi.sourceforge.net/DTD/sodipodi-0.dtd"
   xmlns:inkscape="http://www.inkscape.org/namespaces/inkscape"
   width="250"
   height="250"
   id="svg2"
   version="1.1"
   inkscape:version="0.48.2 r9819"
   sodipodi:docname="register.svg"
   inkscape:export-filename="/Users/gregoire/Downloads/register.png"
   inkscape:export-xdpi="90"
   inkscape:export-ydpi="90">
  <defs
     id="defs4" />
  <sodipodi:namedview
     id="base"
     pagecolor="#ffffff"
     bordercolor="#666666"
     borderopacity="1.0"
     inkscape:pageopacity="0.0"
     inkscape:pageshadow="2"
     inkscape:zoom="1"
     inkscape:cx="12.29123"
     inkscape:cy="-11.37812"
     inkscape:document-units="px"
     inkscape:current-layer="layer1"
     showgrid="false"
     showguides="true"
     inkscape:guide-bbox="true"
     fit-margin-top="0"
     fit-margin-left="0"
     fit-margin-right="0"
     fit-margin-bottom="0"
     inkscape:window-width="1229"
     inkscape:window-height="753"
     inkscape:window-x="0"
     inkscape:window-y="0"
     inkscape:window-maximized="0">
    <sodipodi:guide
       orientation="0,1"
       position="60.085704,101.68535"
       id="guide3200" />
  </sodipodi:namedview>
  <metadata
     id="metadata7">
    <rdf:RDF>
      <cc:Work
         rdf:about="">
        <dc:format>image/svg+xml</dc:format>
        <dc:type
           rdf:resource="http://purl.org/dc/dcmitype/StillImage" />
        <dc:title></dc:title>
      </cc:Work>
    </rdf:RDF>
  </metadata>
  <g
     inkscape:label="Layer 1"
     inkscape:groupmode="layer"
     id="layer1"
     transform="translate(-210.9143,-276.04755)">
    <text
       xml:space="preserve"
       style="font-size:93.86917877px;font-style:normal;font-variant:normal;font-weight:bold;font-stretch:normal;line-height:125%;letter-spacing:0px;word-spacing:0px;fill:#000000;fill-opacity:1;stroke:none;font-family:Yanone Kaffeesatz;-inkscape-font-specification:Yanone Kaffeesatz Bold"
       x="221.07784"
       y="485.05161"
       id="text3049"
       sodipodi:linespacing="125%"><tspan
         sodipodi:role="line"
         id="tspan3051"
         x="221.07784"
         y="485.05161">Register</tspan></text>
    <g
       id="g3161"
       transform="matrix(0,-1,1,0,212.67511,401.7646)"
       style="fill:#05218b;fill-opacity:1"
       inkscape:export-xdpi="71.970787"
       inkscape:export-ydpi="71.970787"
       inkscape:export-filename="/Users/gregoire/Downloads/register.png">
      <path
         id="path3151"
         d="M 84.27,31.833 H 15.73 c -2.206,0 -4,1.794 -4,4 v 27.083 c 0,2.206 1.794,4 4,4 h 68.54 c 2.207,0 4,-1.794 4,-4 V 35.833 c 0,-2.205 -1.793,-4 -4,-4 z"
         inkscape:connector-curvature="0"
         style="fill:#05218b;fill-opacity:1" />
      <path
         id="path3153"
         d="M 100,32.639 V 30.645 C 96.686,29.45 94.064,26.821 92.882,23.5 H 7.16 C 5.972,26.835 3.335,29.472 0,30.66 v 1.979 c 1.155,0.358 2,1.422 2,2.694 0,1.273 -0.845,2.337 -2,2.694 v 1.611 c 1.155,0.358 2,1.422 2,2.694 0,1.273 -0.845,2.337 -2,2.694 v 1.611 c 1.155,0.358 2,1.422 2,2.694 0,1.272 -0.845,2.337 -2,2.694 v 1.61 c 1.155,0.357 2,1.423 2,2.694 0,1.273 -0.845,2.337 -2,2.693 v 1.611 c 1.155,0.357 2,1.422 2,2.694 0,1.272 -0.845,2.337 -2,2.694 v 2.104 c 3.321,1.184 5.95,3.803 7.145,7.118 H 92.896 C 94.085,71.941 96.699,69.33 100,68.139 V 66.02 c -1.154,-0.356 -2,-1.42 -2,-2.693 0,-1.271 0.846,-2.337 2,-2.694 v -1.61 c -1.154,-0.357 -2,-1.422 -2,-2.694 0,-1.272 0.846,-2.337 2,-2.694 v -1.611 c -1.154,-0.356 -2,-1.42 -2,-2.693 0,-1.272 0.846,-2.337 2,-2.694 v -1.611 c -1.154,-0.357 -2,-1.421 -2,-2.694 0,-1.272 0.846,-2.337 2,-2.694 v -1.611 c -1.154,-0.358 -2,-1.422 -2,-2.695 0,-1.271 0.846,-2.336 2,-2.693 z m -9.73,30.277 c 0,3.309 -2.69,6 -6,6 H 15.73 c -3.309,0 -6,-2.691 -6,-6 V 35.833 c 0,-3.309 2.691,-6 6,-6 h 68.54 c 3.31,0 6,2.691 6,6 v 27.083 z"
         inkscape:connector-curvature="0"
         style="fill:#05218b;fill-opacity:1" />
    </g>
    <g
       id="g3161-4"
       transform="matrix(0.25881905,-0.96592583,0.96592583,0.25881905,272.16995,387.30622)"
       style="fill:#b20000;fill-opacity:1"
       inkscape:export-filename="/Users/gregoire/Downloads/register.png"
       inkscape:export-xdpi="71.970787"
       inkscape:export-ydpi="71.970787">
      <path
         id="path3151-6"
         d="M 84.27,31.833 H 15.73 c -2.206,0 -4,1.794 -4,4 v 27.083 c 0,2.206 1.794,4 4,4 h 68.54 c 2.207,0 4,-1.794 4,-4 V 35.833 c 0,-2.205 -1.793,-4 -4,-4 z"
         inkscape:connector-curvature="0"
         style="fill:#b20000;fill-opacity:1" />
      <path
         id="path3153-0"
         d="M 100,32.639 V 30.645 C 96.686,29.45 94.064,26.821 92.882,23.5 H 7.16 C 5.972,26.835 3.335,29.472 0,30.66 v 1.979 c 1.155,0.358 2,1.422 2,2.694 0,1.273 -0.845,2.337 -2,2.694 v 1.611 c 1.155,0.358 2,1.422 2,2.694 0,1.273 -0.845,2.337 -2,2.694 v 1.611 c 1.155,0.358 2,1.422 2,2.694 0,1.272 -0.845,2.337 -2,2.694 v 1.61 c 1.155,0.357 2,1.423 2,2.694 0,1.273 -0.845,2.337 -2,2.693 v 1.611 c 1.155,0.357 2,1.422 2,2.694 0,1.272 -0.845,2.337 -2,2.694 v 2.104 c 3.321,1.184 5.95,3.803 7.145,7.118 H 92.896 C 94.085,71.941 96.699,69.33 100,68.139 V 66.02 c -1.154,-0.356 -2,-1.42 -2,-2.693 0,-1.271 0.846,-2.337 2,-2.694 v -1.61 c -1.154,-0.357 -2,-1.422 -2,-2.694 0,-1.272 0.846,-2.337 2,-2.694 v -1.611 c -1.154,-0.356 -2,-1.42 -2,-2.693 0,-1.272 0.846,-2.337 2,-2.694 v -1.611 c -1.154,-0.357 -2,-1.421 -2,-2.694 0,-1.272 0.846,-2.337 2,-2.694 v -1.611 c -1.154,-0.358 -2,-1.422 -2,-2.695 0,-1.271 0.846,-2.336 2,-2.693 z m -9.73,30.277 c 0,3.309 -2.69,6 -6,6 H 15.73 c -3.309,0 -6,-2.691 -6,-6 V 35.833 c 0,-3.309 2.691,-6 6,-6 h 68.54 c 3.31,0 6,2.691 6,6 v 27.083 z"
         inkscape:connector-curvature="0"
         style="fill:#b20000;fill-opacity:1" />
    </g>
    <g
       id="g3161-3"
       transform="matrix(0.5,-0.8660254,0.8660254,0.5,336.04314,370.33085)"
       style="fill:#f8cc00;fill-opacity:1"
       inkscape:export-xdpi="71.970787"
       inkscape:export-ydpi="71.970787"
       inkscape:export-filename="/Users/gregoire/Downloads/register.png">
      <path
         id="path3151-2"
         d="M 84.27,31.833 H 15.73 c -2.206,0 -4,1.794 -4,4 v 27.083 c 0,2.206 1.794,4 4,4 h 68.54 c 2.207,0 4,-1.794 4,-4 V 35.833 c 0,-2.205 -1.793,-4 -4,-4 z"
         inkscape:connector-curvature="0"
         style="fill:#f8cc00;fill-opacity:1" />
      <path
         id="path3153-6"
         d="M 100,32.639 V 30.645 C 96.686,29.45 94.064,26.821 92.882,23.5 H 7.16 C 5.972,26.835 3.335,29.472 0,30.66 v 1.979 c 1.155,0.358 2,1.422 2,2.694 0,1.273 -0.845,2.337 -2,2.694 v 1.611 c 1.155,0.358 2,1.422 2,2.694 0,1.273 -0.845,2.337 -2,2.694 v 1.611 c 1.155,0.358 2,1.422 2,2.694 0,1.272 -0.845,2.337 -2,2.694 v 1.61 c 1.155,0.357 2,1.423 2,2.694 0,1.273 -0.845,2.337 -2,2.693 v 1.611 c 1.155,0.357 2,1.422 2,2.694 0,1.272 -0.845,2.337 -2,2.694 v 2.104 c 3.321,1.184 5.95,3.803 7.145,7.118 H 92.896 C 94.085,71.941 96.699,69.33 100,68.139 V 66.02 c -1.154,-0.356 -2,-1.42 -2,-2.693 0,-1.271 0.846,-2.337 2,-2.694 v -1.61 c -1.154,-0.357 -2,-1.422 -2,-2.694 0,-1.272 0.846,-2.337 2,-2.694 v -1.611 c -1.154,-0.356 -2,-1.42 -2,-2.693 0,-1.272 0.846,-2.337 2,-2.694 v -1.611 c -1.154,-0.357 -2,-1.421 -2,-2.694 0,-1.272 0.846,-2.337 2,-2.694 v -1.611 c -1.154,-0.358 -2,-1.422 -2,-2.695 0,-1.271 0.846,-2.336 2,-2.693 z m -9.73,30.277 c 0,3.309 -2.69,6 -6,6 H 15.73 c -3.309,0 -6,-2.691 -6,-6 V 35.833 c 0,-3.309 2.691,-6 6,-6 h 68.54 c 3.31,0 6,2.691 6,6 v 27.083 z"
         inkscape:connector-curvature="0"
         style="fill:#f8cc00;fill-opacity:1" />
    </g>
  </g>
</svg>
