<?xml version="1.0" encoding="UTF-8" standalone="no"?>
<!-- Created with Inkscape (http://www.inkscape.org/) -->

<!-- The creative work (this includes design, as well as programming code) by MaXine Lindner is licensed under Creative Commons Attribution-Non-Commercial-No Derivative Works 3.0 Germany License. (http://creativecommons.org/licenses/by-nc-nd/3.0/de/) -->

<svg
   xmlns:dc="http://purl.org/dc/elements/1.1/"
   xmlns:cc="http://creativecommons.org/ns#"
   xmlns:rdf="http://www.w3.org/1999/02/22-rdf-syntax-ns#"
   xmlns:svg="http://www.w3.org/2000/svg"
   xmlns="http://www.w3.org/2000/svg"
   xmlns:sodipodi="http://sodipodi.sourceforge.net/DTD/sodipodi-0.dtd"
   xmlns:inkscape="http://www.inkscape.org/namespaces/inkscape"
   width="204.03125"
   height="185.25"
   id="svg2489"
   sodipodi:version="0.32"
   inkscape:version="0.48.2 r9819"
   sodipodi:docname="FSCONS_logo_notfound.svg"
   inkscape:output_extension="org.inkscape.output.svg.inkscape"
   version="1.1"
   inkscape:export-filename="/Users/gregoire/Downloads/FSCONS_logo_notfound.png"
   inkscape:export-xdpi="300"
   inkscape:export-ydpi="300">
  <defs
     id="defs2491">
    <inkscape:perspective
       sodipodi:type="inkscape:persp3d"
       inkscape:vp_x="0 : 526.18109 : 1"
       inkscape:vp_y="0 : 1000 : 0"
       inkscape:vp_z="744.09448 : 526.18109 : 1"
       inkscape:persp3d-origin="372.04724 : 350.78739 : 1"
       id="perspective2497" />
  </defs>
  <sodipodi:namedview
     id="base"
     pagecolor="#ffffff"
     bordercolor="#666666"
     borderopacity="1.0"
     gridtolerance="10000"
     guidetolerance="10"
     objecttolerance="10"
     inkscape:pageopacity="0.0"
     inkscape:pageshadow="2"
     inkscape:zoom="2.2627119"
     inkscape:cx="165.4485"
     inkscape:cy="91.5"
     inkscape:document-units="px"
     inkscape:current-layer="layer1"
     showgrid="false"
     inkscape:window-width="1280"
     inkscape:window-height="752"
     inkscape:window-x="0"
     inkscape:window-y="0"
     inkscape:window-maximized="0"
     fit-margin-top="0"
     fit-margin-left="0"
     fit-margin-right="0"
     fit-margin-bottom="0">
    <sodipodi:guide
       position="139.12368,-575.51108"
       orientation="0,744.09448"
       id="guide3610" />
    <sodipodi:guide
       position="883.21816,-575.51108"
       orientation="-1052.3622,0"
       id="guide3612" />
    <sodipodi:guide
       position="883.21816,476.85112"
       orientation="0,-744.09448"
       id="guide3614" />
    <sodipodi:guide
       position="139.12368,-575.51108"
       orientation="0,744.09448"
       id="guide3618" />
    <sodipodi:guide
       position="883.21816,-575.51108"
       orientation="-1052.3622,0"
       id="guide3620" />
    <sodipodi:guide
       position="883.21816,476.85112"
       orientation="0,-744.09448"
       id="guide3622" />
  </sodipodi:namedview>
  <metadata
     id="metadata2494">
    <rdf:RDF>
      <cc:Work
         rdf:about="">
        <dc:format>image/svg+xml</dc:format>
        <dc:type
           rdf:resource="http://purl.org/dc/dcmitype/StillImage" />
        <dc:title></dc:title>
      </cc:Work>
    </rdf:RDF>
  </metadata>
  <g
     inkscape:label="Layer 1"
     inkscape:groupmode="layer"
     id="layer1"
     transform="translate(139.12368,-291.6011)">
    <path
       style="font-size:medium;font-style:normal;font-variant:normal;font-weight:normal;font-stretch:normal;text-indent:0;text-align:start;text-decoration:none;line-height:normal;letter-spacing:normal;word-spacing:normal;text-transform:none;direction:ltr;block-progression:tb;writing-mode:lr-tb;text-anchor:start;baseline-shift:baseline;color:#000000;fill:none;stroke:#666666;stroke-width:0.5;stroke-miterlimit:4;stroke-opacity:1;stroke-dasharray:4, 2;stroke-dashoffset:0;marker:none;visibility:visible;display:inline;overflow:visible;enable-background:accumulate;font-family:Sans;-inkscape-font-specification:Sans"
       d="m 100.03125,22.84375 c -13.651185,-0.0711 -27.460304,3.76372 -39.65625,11.9375 -8.616722,5.77501 -15.446493,13.03122 -20.625,21.25 -2.40777,3.82137 -4.51304,8.0954 -6.1875,12.53125 -1.6701,4.42412 -2.9008,8.98456 -3.59375,13.375 -0.75339,4.68803 -1.06404,8.98096 -0.96875,13.28125 0.0949,4.28817 0.57022,8.65739 1.625,13.59375 1.87179,8.76073 5.50597,17.00049 10.34375,24.21875 2.748795,4.10141 6.968332,9.33134 12.875,14.4375 2.995323,2.58938 6.554032,5.1686 10.5,7.4375 3.938531,2.26455 8.207756,4.23301 12.59375,5.71875 4.478654,1.51715 9.153834,2.6516 14.375,3.28125 4.984986,0.60118 9.89141,0.61891 14.125,0.28125 2.6374,-0.21033 5.26404,-0.5811 7.9375,-1.09375 2.74426,-0.52624 4.29904,-1.89346 5.875,-3 0.6195,-0.43497 1.1841,-0.81515 1.71875,-1.15625 l 1.53125,2.71875 27.5625,-21.03125 -35.40625,7.15625 2.3125,4.125 c -0.8392,0.5405 -1.58888,1.11693 -2.3125,1.625 -1.50339,1.05558 -2.98975,1.75873 -2.78125,1.71875 -2.39808,0.45985 -4.75703,0.7824 -7.09375,0.96875 -3.70183,0.29524 -8.107228,0.24851 -12.5,-0.28125 -4.659406,-0.56191 -8.755828,-1.54264 -12.78125,-2.90625 -3.856004,-1.3062 -7.661611,-3.05317 -11.15625,-5.0625 -3.487062,-2.00504 -6.686361,-4.28803 -9.28125,-6.53125 -5.27376,-4.55902 -9.036431,-9.29243 -11.4375,-12.875 -4.306113,-6.42498 -7.545746,-13.72216 -9.1875,-21.40625 C 37.48172,102.68323 37.0847,98.85838 37,95.03125 36.9155,91.2163 37.15746,87.45799 37.84375,83.1875 l 0.03125,0 c 0.59455,-3.767 1.695843,-7.82983 3.1875,-11.78125 1.487162,-3.93967 3.372933,-7.76748 5.46875,-11.09375 4.626265,-7.34232 10.611338,-13.73455 18.28125,-18.875 28.920887,-19.38289 67.91768,-11.50512 87.15625,17.21875 l 6.625,-4.46875 C 145.06296,33.98554 122.78323,22.96227 100.03125,22.84375 z"
       id="path4343"
       transform="translate(-138.87368,282.3511)"
       inkscape:connector-curvature="0" />
    <path
       style="font-size:medium;font-style:normal;font-variant:normal;font-weight:normal;font-stretch:normal;text-indent:0;text-align:start;text-decoration:none;line-height:normal;letter-spacing:normal;word-spacing:normal;text-transform:none;direction:ltr;block-progression:tb;writing-mode:lr-tb;text-anchor:start;baseline-shift:baseline;color:#000000;fill:none;stroke:#666666;stroke-width:0.5;stroke-miterlimit:4;stroke-opacity:1;stroke-dasharray:4, 2;stroke-dashoffset:0;marker:none;visibility:visible;display:inline;overflow:visible;enable-background:accumulate;font-family:Sans;-inkscape-font-specification:Sans"
       d="M 98.9375,9.5 C 68.829444,9.4783 39.546589,25.48034 24.125,53.84375 18.18143,64.77522 14.99282,76.25633 14.0625,87.875 c -0.43171,5.39133 -0.31355,11.10539 0.375,16.75 0.68704,5.63216 1.89197,11.18178 3.59375,16.21875 1.81113,5.41105 3.88175,10.10938 6.375,14.625 2.48742,4.50494 5.43954,8.92825 9.3125,13.59375 6.855909,8.25887 15.280222,14.95857 24.4375,19.9375 5.195557,2.82492 12.598478,6.04731 21.71875,8.1875 4.614162,1.08276 9.828487,1.84712 15.28125,2.0625 5.44409,0.21504 11.08028,-0.0768 16.5625,-0.9375 5.60795,-0.88043 11.22505,-2.29481 17.125,-4.53125 5.6275,-2.13318 10.81982,-4.82052 15.125,-7.53125 2.68465,-1.69035 5.31765,-3.56018 7.875,-5.59375 2.384,-1.89574 3.56221,-4.22982 5.03125,-6.59375 0.0971,-0.1562 0.18345,-0.28176 0.28125,-0.4375 l 1.96875,1.8125 18.3125,-29.46875 -30,18.84375 3.65625,3.3125 c -0.34338,0.56315 -0.68209,1.15689 -1.03125,1.71875 -1.42655,2.29556 -3.15514,4.51192 -3.21875,4.5625 -2.33788,1.85905 -4.69558,3.53285 -7.125,5.0625 -3.85372,2.42647 -8.64899,4.92199 -13.71875,6.84375 -5.37087,2.03588 -10.39603,3.28754 -15.53125,4.09375 -4.92939,0.77392 -10.06758,1.03857 -15,0.84375 -4.923747,-0.19448 -9.65107,-0.88189 -13.75,-1.84375 C 73.41298,167.4572 66.646835,164.49531 62,161.96875 53.681684,157.44598 46.027733,151.34929 39.875,143.9375 c -3.57032,-4.30094 -6.20413,-8.24231 -8.46875,-12.34375 -2.25867,-4.09076 -4.1044,-8.30261 -5.78125,-13.3125 -1.49972,-4.43889 -2.62414,-9.49434 -3.25,-14.625 -0.62435,-5.11825 -0.72874,-10.31703 -0.34375,-15.125 0.84764,-10.58601 3.72587,-20.94487 9.125,-30.875 20.360316,-37.44673 67.131688,-51.04258 104.3125,-30.8125 l 3.8125,-7.03125 C 126.47312,12.84359 112.62298,9.50987 98.9375,9.5 z"
       transform="translate(-138.87368,282.3511)"
       id="path4345"
       inkscape:connector-curvature="0" />
    <path
       style="font-size:medium;font-style:normal;font-variant:normal;font-weight:normal;font-stretch:normal;text-indent:0;text-align:start;text-decoration:none;line-height:normal;letter-spacing:normal;word-spacing:normal;text-transform:none;direction:ltr;block-progression:tb;writing-mode:lr-tb;text-anchor:start;baseline-shift:baseline;color:#000000;fill:none;stroke:#666666;stroke-width:0.5;stroke-miterlimit:4;stroke-opacity:1;stroke-dasharray:4, 2;stroke-dashoffset:0;marker:none;visibility:visible;display:inline;overflow:visible;enable-background:accumulate;font-family:Sans;-inkscape-font-specification:Sans"
       d="m 0.90625,82.09375 c -7.30549,53.86126 30.53861,103.91352 84.75,111.25 14.36501,1.94402 28.17928,0.7065 41.21875,-3.09375 6.04193,-1.76081 12.23331,-4.28757 18.09375,-7.375 5.84938,-3.08157 11.35484,-6.69359 16.125,-10.625 5.14852,-4.21889 9.42889,-8.41558 13.3125,-13 3.93477,-4.64493 6.80236,-9.14675 10.84375,-15.59375 6.54833,-10.44616 7.38136,-11.54465 9.65625,-17.65625 l 2.09375,0.96875 6.625,-31.8125 -21.03125,25.125 5.0625,2.34375 c -2.18723,6.05551 -2.45761,6.04546 -9.1875,16.78125 -4.03019,6.42914 -6.63764,10.53383 -10.15625,14.6875 -3.56992,4.21412 -7.45992,8.01796 -12.28125,11.96875 -4.28305,3.52995 -9.41014,6.87268 -14.8125,9.71875 -5.3913,2.84027 -11.11373,5.1842 -16.59375,6.78125 -12.0449,3.51039 -24.670707,4.66616 -37.90625,2.875 C 36.80399,178.68248 2.1205,132.72481 8.84375,83.15625 l -7.9375,-1.0625 z"
       transform="translate(-138.87368,282.3511)"
       id="path4347"
       inkscape:connector-curvature="0" />
  </g>
</svg>
