<?xml version="1.0" encoding="UTF-8" standalone="no"?>
<svg
   xmlns:dc="http://purl.org/dc/elements/1.1/"
   xmlns:cc="http://creativecommons.org/ns#"
   xmlns:rdf="http://www.w3.org/1999/02/22-rdf-syntax-ns#"
   xmlns:svg="http://www.w3.org/2000/svg"
   xmlns="http://www.w3.org/2000/svg"
   xmlns:sodipodi="http://sodipodi.sourceforge.net/DTD/sodipodi-0.dtd"
   xmlns:inkscape="http://www.inkscape.org/namespaces/inkscape"
   version="1.1"
   x="0px"
   y="0px"
   viewBox="0 0 32 32"
   enable-background="new 0 0 90 90"
   xml:space="preserve"
   id="svg3480"
   inkscape:version="0.91 r13725"
   sodipodi:docname="ic_schedule_white.svg"
   width="32"
   height="32"><metadata
     id="metadata3492"><rdf:RDF><cc:Work
         rdf:about=""><dc:format>image/svg+xml</dc:format><dc:type
           rdf:resource="http://purl.org/dc/dcmitype/StillImage" /><dc:title></dc:title></cc:Work></rdf:RDF></metadata><defs
     id="defs3490" /><sodipodi:namedview
     pagecolor="#7c7c7c"
     bordercolor="#666666"
     borderopacity="1"
     objecttolerance="10"
     gridtolerance="10"
     guidetolerance="10"
     inkscape:pageopacity="0"
     inkscape:pageshadow="2"
     inkscape:window-width="1280"
     inkscape:window-height="736"
     id="namedview3488"
     showgrid="false"
     inkscape:zoom="2.0977778"
     inkscape:cx="45"
     inkscape:cy="56.25"
     inkscape:window-x="0"
     inkscape:window-y="27"
     inkscape:window-maximized="1"
     inkscape:current-layer="svg3480" /><path
     d="m 28.735852,10.028612 0,3.312254 0,11.989428 c 0,2.006014 -1.632802,3.592164 -3.592164,3.592164 l -18.287376,0 c -2.006014,0 -3.592164,-1.632802 -3.592164,-3.592164 l 0,-11.989428 0,-3.312254 c 0,-2.0060138 1.632802,-3.5921639 3.592164,-3.5921639 l 1.212938,0 0,1.3995442 0,2.0993162 c 0,1.4461955 1.166287,2.6124825 2.612482,2.6124825 1.446196,0 2.612483,-1.166287 2.612483,-2.6124825 l 0,-2.0993162 0,-1.3995442 5.691479,0 0,1.3995442 0,2.0993162 c 0,1.4461955 1.166287,2.6124825 2.612483,2.6124825 1.446195,0 2.612482,-1.166287 2.612482,-2.6124825 l 0,-2.0993162 0,-1.3995442 0.979681,0 c 1.91271,0 3.545512,1.5861501 3.545512,3.5921639 z m -1.072984,2.985694 -23.325736,0 0,12.315988 c 0,1.399544 1.119635,2.51918 2.51918,2.51918 l 18.287376,0 c 1.399545,0 2.51918,-1.119636 2.51918,-2.51918 l 0,-12.315988 z M 10.681732,11.521459 c 0.886378,0 1.58615,-0.699772 1.58615,-1.5861505 l 0,-2.0993162 0,-1.3995442 0,-1.7727559 c 0,-0.886378 -0.699772,-1.58615 -1.58615,-1.58615 -0.886378,0 -1.58615,0.699772 -1.58615,1.58615 l 0,1.7727559 0,1.3995442 0,2.0993162 c 0,0.8863785 0.699772,1.5861505 1.58615,1.5861505 z m 10.916445,0 c 0.886378,0 1.58615,-0.699772 1.58615,-1.5861505 l 0,-2.0993162 0,-1.3995442 0,-1.7727559 c 0,-0.886378 -0.699772,-1.58615 -1.58615,-1.58615 -0.886378,0 -1.58615,0.699772 -1.58615,1.58615 l 0,1.7727559 0,1.3995442 0,2.0993162 c -0.04665,0.8863785 0.699772,1.5861505 1.58615,1.5861505 z m 0.233257,4.851753 c -0.466515,-0.466515 -1.25959,-0.466515 -1.726105,0 L 14.41385,22.01804 11.894671,19.49886 c -0.466515,-0.466514 -1.25959,-0.466514 -1.726105,0 -0.466515,0.466515 -0.466515,1.25959 0,1.726105 l 3.358906,3.358906 c 0.233257,0.233257 0.559818,0.373212 0.839726,0.373212 0.279909,0 0.60647,-0.139955 0.839727,-0.373212 l 6.531206,-6.531206 c 0.559818,-0.466515 0.559818,-1.212939 0.0933,-1.679453 z"
     id="path3482"
     inkscape:connector-curvature="0"
     style="fill:#ffffff" /></svg>